<deployment-project plugin="plugin.apptool" plugin-version="1.0">
  <configuration file="D:\niduc\source\SymulatorARQ.prj" location="D:\niduc\source" name="SymulatorARQ" target="target.mlapps" target-name="Package App">
    <param.appname>SymulatorARQ</param.appname>
    <param.authnamewatermark />
    <param.email />
    <param.company />
    <param.icon />
    <param.icons />
    <param.summary />
    <param.description />
    <param.screenshot />
    <param.version>1.0</param.version>
    <param.products.name />
    <param.products.id />
    <param.products.version />
    <param.platforms />
    <param.output>D:\niduc\source</param.output>
    <param.guid>ca2ecfe2-7c6d-4703-88d5-3e959c7857e2</param.guid>
    <unset>
      <param.authnamewatermark />
      <param.email />
      <param.company />
      <param.icon />
      <param.icons />
      <param.summary />
      <param.description />
      <param.screenshot />
      <param.version />
      <param.products.name />
      <param.products.id />
      <param.products.version />
      <param.platforms />
      <param.output />
    </unset>
    <fileset.main>
      <file>${PROJECT_ROOT}\ARQ.mlapp</file>
    </fileset.main>
    <fileset.depfun>
      <file>${PROJECT_ROOT}\checksum.m</file>
      <file>${PROJECT_ROOT}\RandomBin.m</file>
      <file>${PROJECT_ROOT}\StopAndWaitARQ.m</file>
      <file>${PROJECT_ROOT}\TransmissionChannel.m</file>
    </fileset.depfun>
    <fileset.resources />
    <fileset.package />
    <build-deliverables>
      <file location="D:\niduc" name="source" optional="false">D:\niduc\source</file>
    </build-deliverables>
    <workflow />
    <matlab>
      <root>D:\Matlab</root>
      <toolboxes>
        <toolbox name="fixedpoint" />
        <toolbox name="matlabcoder" />
        <toolbox name="matlabhdlcoder" />
        <toolbox name="embeddedcoder" />
        <toolbox name="gpucoder" />
        <toolbox name="polyspacebugfinder" />
      </toolboxes>
      <toolbox>
        <fixedpoint>
          <enabled>true</enabled>
        </fixedpoint>
      </toolbox>
      <toolbox>
        <matlabcoder>
          <enabled>true</enabled>
        </matlabcoder>
      </toolbox>
      <toolbox>
        <matlabhdlcoder>
          <enabled>true</enabled>
        </matlabhdlcoder>
      </toolbox>
      <toolbox>
        <embeddedcoder>
          <enabled>true</enabled>
        </embeddedcoder>
      </toolbox>
      <toolbox>
        <gpucoder>
          <enabled>true</enabled>
        </gpucoder>
      </toolbox>
      <toolbox>
        <polyspacebugfinder>
          <enabled>true</enabled>
        </polyspacebugfinder>
      </toolbox>
    </matlab>
    <platform>
      <unix>false</unix>
      <mac>false</mac>
      <windows>true</windows>
      <win2k>false</win2k>
      <winxp>false</winxp>
      <vista>false</vista>
      <linux>false</linux>
      <solaris>false</solaris>
      <osver>10.0</osver>
      <os32>false</os32>
      <os64>true</os64>
      <arch>win64</arch>
      <matlab>true</matlab>
    </platform>
  </configuration>
</deployment-project>